{{0.671887110985186, -4.14378920114274, 0}
{0.723295725859366, -3.93793496868569, 0}
{0.778288144517789, -3.64654443471266, 0}
{0.728026520323643, -4.01787733954413, 0}
{0.765769109274981, -3.99838355476763, 0}
{0.754597598290103, -3.97772020547767, 0}
{0.719335161304035, -4.28742736092211, 0}
{0.67384777057877, -4.17681232572301, 0}
{0.790775711474271, -3.905609564072, 0}
{0.706274451706281, -3.91916908054792, 0}
{0.728761082961555, -4.04996115922681, 0}
{0.665380803447619, -4.37066044923573, 0}
{0.639907539004984, -4.44011962835025, 0}
{0.655338593632256, -4.36062433699855, 0}
{0.670775311184298, -4.11382900809031, 0}
{0.684035695687265, -3.94433776159258, 0}
{0.701566746013411, -3.88904072891296, 0}
{0.666666697910067, -3.76626315783027, 0}
{0.696757769242821, -3.93044935726052, 0}
{0.679907063541927, -3.72156476664716, 0}
{0.705083495781165, -3.32542105997653, 0}
{0.760276167513551, -3.25695614119468, 0}
{0.747530389860024, -3.44640530971325, 0}
{0.695851293295172, -3.690705147635, 0}
{0.621012587488024, -4.1627632777675, 0}
{0.678211109942878, -3.3559595157928, 0}
{0.702199339581351, -2.91179370670734, 0}
{0.693328508286075, -3.21851554010062, 0}
{0.674692213081396, -2.99523229211965, 0}
{0.794411486953309, -2.18255092292241, 0}
{0.778109973703619, -2.76419598778508, 0}
{0.653804292066521, -3.79238771910454, 0}
{0.712169108595851, -4.06896719548098, 0}
{0.729399637873326, -3.96364320752488, 0}
{0.717310643473239, -3.97172070075205, 0}
{0.738171727385586, -4.04848370071154, 0}
{0.746607312548128, -4.09281563564242, 0}
{0.69999985263888, -4.45356048773394, 0}
{0.683051156095024, -4.38630341337653, 0}
{0.684348564211562, -4.54701375974917, 0}
{0.772102781651601, -3.94439024984596, 0}
{0.69612273513113, -4.19443912240971, 0}
{0.711837372603711, -4.23144801931048, 0}
{0.670116217974581, -4.19792490251107, 0}
{0.665294341692305, -4.36476431419328, 0}
{0.649394654580047, -4.0352952097296, 0}
{0.699905175183823, -4.19197086156623, 0}
{0.666985872316908, -3.93563290534553, 0}
{0.678821697114135, -3.78684397874038, 0}
{0.688847221996291, -3.67458558344533, 0}
{0.706791499262289, -3.49386892584409, 0}
{0.721370502549869, -3.57470135536885, 0}
{0.668672321681219, -3.44809962922498, 0}
{0.745702736606466, -3.50594923189516, 0}
{0.672960592268512, -3.80055095429419, 0}
{0.719145700358343, -3.26072718791164, 0}
{0.712687654069614, -3.54875135889735, 0}
{0.744308016287739, -2.58492184900415, 0}
{0.763309193036377, -2.75588209447499, 0}
{0.66666680418265, -3.70552209809337, 0}
{0.734507998570569, -2.83148938794543, 0}
{0.833332944960228, -2.71857143259822, 0}
{0.621813788373374, -4.15064402408975, 0}
{0.70679811586443, -3.42479013748784, 0}
{0.713716490692146, -4.1183713742902, 0}
{0.733333340737739, -4.26692273230272, 0}
{0.704687113904678, -4.39317194927404, 0}
{0.67676222215365, -4.26359603544802, 0}
{0.647759549094805, -4.60315051166986, 0}
{0.622135829705702, -4.62488024629971, 0}
{0.635863399764776, -4.43143589597526, 0}
{0.68969078045662, -4.27348101376203, 0}
{0.750645100044219, -4.16803710358342, 0}
{0.720660456811765, -3.97960642435067, 0}
{0.725882092300918, -3.87492582495999, 0}
{0.701314390348415, -4.11125128476166, 0}
{0.64267015158876, -3.97426141282253, 0}
{0.698963615427532, -4.02234560166685, 0}
{0.697863529259548, -4.20185331389571, 0}
{0.701137561543958, -3.80422637228756, 0}
{0.700761613108416, -3.88042050196853, 0}
{0.704279953083495, -3.41855152007921, 0}
{0.804519988544068, -2.64250540466101, 0}
{0.79767355297416, -3.36031491028798, 0}
{0.600000007100555, -4.55690870846001, 0}
{0.652772754515746, -3.69484362481726, 0}
{0.744274156515868, -2.69881098719875, 0}
{0.788174689874579, -3.05734156796743, 0}
{0.717961756769695, -3.22025822351131, 0}
{0.7345429231059, -2.98942055103683, 0}
{0.709034672565991, -3.52118965393887, 0}
{0.748586311676317, -3.11990212934288, 0}
{0.74102760026918, -3.48495940008873, 0}
{0.641156590935402, -4.20728769808078, 0}
{0.634708477505742, -3.99827760686674, 0}
{0.69634708702116, -3.17815821232277, 0}
{0.694022315079278, -4.25597756742086, 0}
{0.730598672747074, -4.19830066235903, 0}
{0.666666588840931, -4.65836393815431, 0}
{0.678881349003273, -4.47540514103734, 0}
{0.658517853440359, -4.31251385250174, 0}
{0.671813714166876, -4.49358129018078, 0}
{0.699999961491131, -4.2654489584175, 0}
{0.686470583666325, -4.09742527242641, 0}
{0.689297684324673, -4.06948695286222, 0}
{0.726556430547954, -3.98210733095758, 0}
{0.717035307465868, -3.89911337594361, 0}
{0.695695327971957, -3.75640049587165, 0}
{0.681856887260294, -4.01707026193233, 0}
{0.682086254814485, -3.88319375522612, 0}
{0.699739716423619, -3.87083467544406, 0}
{0.698953008775936, -3.99291289447103, 0}
{0.666666666666668, -3.57472937669716, 0}
{0.666666708168424, -3.24399361777832, 0}
{0.739702179109919, -3.13638984657052, 0}
{0.741745678018512, -3.45345109086603, 0}
{0.645052799770485, -4.09266047438538, 0}
{0.74276356103103, -2.95476374318267, 0}
{0.851996682036661, -2.55953503610779, 0}
{0.753108877073384, -3.3831607383588, 0}
{0.777242397556428, -3.18047672379012, 0}
{0.735843479780879, -3.54829971041509, 0}
{0.715863469062155, -3.55618635798522, 0}
{0.75042938349364, -3.36789654861689, 0}
{0.665185220441211, -4.34688454828665, 0}
{0.6049125681711, -4.59045005779638, 0}
{0.639793216302359, -4.0402152288669, 0}
{0.697865825029003, -3.53689961921067, 0}
{0.754735650954567, -4.082363959282, 0}
{0.786390332876536, -3.96651879776543, 0}
{0.633211422037444, -4.64479813877521, 0}
{0.625901435806899, -4.59227341334152, 0}
{0.60981983782024, -4.55573895081093, 0}
{0.690270586904653, -4.25396629396644, 0}
{0.732543776144385, -4.04927686454275, 0}
{0.721234365535751, -4.23245723918781, 0}
{0.667568234957309, -4.45409074783173, 0}
{0.633641558343197, -4.31983898159392, 0}
{0.728659876219663, -3.99045673929675, 0}
{0.647657433156154, -4.16139148720713, 0}
{0.701574254113825, -3.78304020924788, 0}
{0.76907796963012, -3.56778858510262, 0}
{0.699414771625189, -3.83742686878239, 0}
{0.699150200493482, -4.18280665104885, 0}
{0.667704724480452, -3.56989669038536, 0}
{0.666923376454078, -3.33415892710759, 0}
{0.795504131297705, -3.00672605275604, 0}
{0.6804586740294, -3.3943854472186, 0}
{0.728885102770655, -3.81500704120199, 0}
{0.754737382437247, -2.91925918140455, 0}
{0.761147254231323, -3.00814360311421, 0}
{0.766541759813532, -3.28740159850601, 0}
{0.700214204458712, -3.6911347680208, 0}
{0.742567813197934, -3.19788637339479, 0}
{0.824917426057919, -2.93320637043933, 0}
{0.715043638527039, -4.03344518830386, 0}
{0.60990026222756, -4.67178075274681, 0}
{0.633188831126279, -4.25774139784877, 0}
{0.621682780709657, -4.18554185819547, 0}
{0.65798810158725, -4.95832632544774, 0}
{0.745187810738428, -3.94424236744784, 0}
{0.721777696132771, -4.14041971236807, 0}
{0.676987284690945, -4.4328036697609, 0}
{0.624580820525186, -4.77911295944709, 0}
{0.629607142135815, -4.65125836129503, 0}
{0.695460107698975, -4.52216063330266, 0}
{0.64966900588625, -4.84830113483801, 0}
{0.64351309705164, -4.44785278137447, 0}
{0.652794657432819, -4.21014182286296, 0}
{0.672729299535997, -4.0584738428099, 0}
{0.729145451142121, -3.82982404981585, 0}
{0.713471689607774, -3.75899648074014, 0}
{0.715381238142813, -3.76560004779814, 0}
{0.690664579804426, -3.65914026296391, 0}
{0.763296926460128, -3.65499119603648, 0}
{0.624525389367668, -4.5209981201319, 0}
{0.700895765709805, -3.56518733450504, 0}
{0.759978862852256, -2.74427765170709, 0}
{0.828502840428905, -2.95152707010845, 0}
{0.688225017902423, -4.16151326552393, 0}
{0.661505291354743, -4.49213904418466, 0}
{0.739524080316554, -3.78227541010304, 0}
{0.733493642845039, -3.30183662495339, 0}
{0.762190918595483, -3.09108761491105, 0}
{0.75063025616096, -3.23307631206309, 0}
{0.816369725075167, -2.78585630575828, 0}
{0.829477442122684, -2.81062984345291, 0}
{0.734486111527701, -3.77294508755494, 0}
{0.64075593483727, -4.59829601258252, 0}
{0.620386345258755, -4.77732174761971, 0}
{0.615747755017596, -4.76705351722591, 0}
{0.631082433751574, -3.77803528539727, 0}
{0.679408592752399, -4.48639584649186, 0}
{0.639394567949503, -4.79430551506359, 0}
{0.71227544655128, -4.49368215321598, 0}
{0.626539517977494, -4.69003883772634, 0}
{0.675212051297543, -4.46255406734479, 0}
{0.616678946143277, -4.92925029250191, 0}
{0.640785009590711, -4.45116577839056, 0}
{0.657217531455192, -4.12806119803874, 0}
{0.705697913298603, -3.81129263707194, 0}
{0.711392334642259, -3.93537491676828, 0}
{0.638665729981567, -4.09276584361763, 0}
{0.691915823101933, -4.01745476151033, 0}
{0.701495496485567, -3.75932623668362, 0}
{0.666666887354187, -3.68105170526046, 0}
{0.669944003823854, -3.71147958536217, 0}
{0.634149875603912, -4.46256924086, 0}
{0.668856391694186, -3.77475916752887, 0}
{0.783180191646791, -2.88091004192693, 0}
{0.832225864389843, -2.70197007878749, 0}
{0.663055420336079, -4.18191597471106, 0}
{0.666666671741267, -4.30857438266188, 0}
{0.766188038468791, -3.36245941877493, 0}
{0.733333330884809, -3.66721839069883, 0}
{0.689684493847844, -3.91369353207623, 0}
{0.788100860042727, -3.11037121509955, 0}
{0.801442859201526, -2.78674351697929, 0}
{0.818201158005847, -2.97589170275035, 0}
{0.825170486026325, -3.00644123300613, 0}
{0.615237410356094, -4.54265304457626, 0}
{0.605323763334525, -4.90368529419632, 0}
{0.664438158429668, -4.6411383490351, 0}
{0.638172363462083, -4.42442205460943, 0}
{0.62498225690243, -5.02447876508874, 0}
{0.66879540123906, -4.80439993245189, 0}
{0.639939399861149, -4.57121611029643, 0}
{0.682169743728764, -4.37189386659657, 0}
{0.676095570219175, -4.51387366131233, 0}
{0.639435879657135, -4.59230649565974, 0}
{0.707472574940617, -4.06889091354918, 0}
{0.705448642284393, -3.8045901714008, 0}
{0.733987828882374, -3.66497945792659, 0}
{0.679720605277777, -4.18130518635987, 0}
{0.666314687346085, -4.37817473156783, 0}
{0.723807114455311, -3.84878946938705, 0}
{0.730036129523949, -4.09731318685511, 0}
{0.696806344523, -3.85989093747518, 0}
{0.622505271053963, -4.88771125644095, 0}
{0.603562209139967, -4.09771655146842, 0}
{0.714994819076443, -3.6692766342028, 0}
{0.761836606881905, -2.91152727030847, 0}
{0.782181568958382, -2.96434152572333, 0}
{0.708942458390618, -4.10558593625162, 0}
{0.690619417734234, -3.94492546383588, 0}
{0.765091418799994, -3.37729124457777, 0}
{0.757415418029867, -3.80335668823272, 0}
{0.676749900020317, -4.11808232505809, 0}
{0.684730008591843, -4.24657481067405, 0}
{0.775524105142397, -3.35015531516271, 0}
{0.773663093397487, -3.03616960338245, 0}
{0.796342765580164, -3.22170804256245, 0}
{0.718024663629509, -3.77984798533788, 0}
{0.591872234448177, -4.72147113722467, 0}
{0.620224908258532, -4.77180017917434, 0}
{0.659368053179458, -4.06506960899381, 0}
{0.608671964320227, -4.99322123992203, 0}
{0.572157883203811, -5.09913901340924, 0}
{0.654754414594983, -4.5619232812274, 0}
{0.692274719103768, -4.28361899150903, 0}
{0.634486701658711, -4.21894787676313, 0}
{0.683130929171467, -4.17779517024498, 0}
{0.778392462964821, -3.72191216165088, 0}
{0.735447787988067, -3.63665299523755, 0}
{0.70432341372984, -3.77149190465389, 0}
{0.731908152002833, -4.13039933618782, 0}
{0.664758898941812, -4.28512898267918, 0}
{0.688566166102758, -4.07315677201509, 0}
{0.670102781979992, -4.18811546924161, 0}
{0.602809812292772, -5.12404842734104, 0}
{0.687010691446159, -4.25725673740065, 0}
{0.67165526761025, -3.44866587039654, 0}
{0.733290836135282, -4.09795220909711, 0}
{0.70425170361101, -3.49085303433835, 0}
{0.738607599429992, -2.9930433412607, 0}
{0.749184596558059, -3.34955711636026, 0}
{0.733538533525142, -3.7062998113032, 0}
{0.760131185729387, -3.39892266928443, 0}
{0.791516248417505, -3.35278285822313, 0}
{0.660775077384099, -5.20033243310886, 0}
{0.633333393970509, -4.56559773836493, 0}
{0.700000023359661, -4.0910013279919, 0}
{0.788155054419314, -3.36611909263477, 0}
{0.74133404228106, -3.40507553249957, 0}
{0.747377437040734, -3.35255570759714, 0}
{0.64720814397689, -4.62744399120193, 0}
{0.664433201351683, -4.16706769442136, 0}
{0.700562525514469, -4.11305873240229, 0}
{0.585882215574809, -5.15015234681485, 0}
{0.628141409287022, -4.19071657363465, 0}
{0.694278935251073, -4.32378054168332, 0}
{0.642103598782881, -4.82870083064116, 0}
{0.670148382539918, -4.44661554692311, 0}
{0.730264637716078, -4.11406570761621, 0}
{0.786476162600418, -3.60406005957013, 0}
{0.776772788438767, -3.64998071420852, 0}
{0.721003676202251, -4.0166993952892, 0}
{0.704086995825867, -4.22626353900453, 0}
{0.718696374592354, -4.23506313480972, 0}
{0.609409810471282, -4.98409339035699, 0}
{0.656449580922345, -4.91966740104705, 0}
{0.681042152750864, -4.39633940799731, 0}
{0.762312428864945, -4.01647911806373, 0}
{0.784502411440476, -3.25577540039026, 0}
{0.695362847652911, -4.84480575894543, 0}
{0.653125547267129, -4.75297200605243, 0}
{0.754052218772169, -3.2774311528159, 0}
{0.821824080475112, -2.89556289687165, 0}
{0.807588881632311, -3.5468779239211, 0}
{0.76128594092789, -3.16529838007409, 0}
{0.814295057714227, -3.47150570493463, 0}
{0.560975490337989, -5.5899555247026, 0}
{0.625592196495508, -4.94454374975503, 0}
{0.726302973535752, -4.14721221375527, 0}
{0.752247176020773, -3.66577527563677, 0}
{0.705617945552458, -3.49501132208334, 0}
{0.773089952475987, -3.50467362728474, 0}
{0.702224518819034, -4.46424002709553, 0}
{0.691047996947271, -4.23144440058669, 0}
{0.691955240867967, -3.90435561575947, 0}
{0.613257678774463, -4.75342581097094, 0}
{0.709502911904618, -4.3318708872701, 0}
{0.658160054748551, -4.83972310719937, 0}
{0.604373765899245, -5.16707472521034, 0}
{0.72873917124342, -4.07044442317144, 0}
{0.703498242240921, -4.50457804526439, 0}
{0.752529749740186, -4.6192690847313, 0}
{0.801768383749056, -3.38710044468965, 0}
{0.764596691565437, -3.70470353972481, 0}
{0.694763085924625, -4.56829785038373, 0}
{0.640440189043205, -5.04122576991178, 0}
{0.676968579582004, -4.56447908812417, 0}
{0.648741718105315, -4.42109226048706, 0}
{0.704615514828279, -4.43066675058323, 0}
{0.674292707728863, -4.37672563036734, 0}
{0.761695682075463, -3.45357302268638, 0}
{0.633013151869667, -5.71894179111732, 0}
{0.665793517402725, -4.61626367688341, 0}
{0.770832488404747, -3.22885380642962, 0}
{0.772848852007057, -3.00250594139648, 0}
{0.900546513312957, -2.89612380661191, 0}
{0.699065430294402, -4.51168453873121, 0}
{0.629197829555933, -4.18464671760369, 0}
{0.762262912752638, -4.28254819369614, 0}
{0.600463034930786, -5.02882326257231, 0}
{0.751179098784542, -4.05007534878606, 0}
{0.759345475319747, -4.02837531550961, 0}
{0.688877966166743, -4.11861804776939, 0}
{0.665556722280827, -4.38326303833381, 0}
{0.702457847325081, -4.23416100199003, 0}
{0.685661960557517, -4.22362949612863, 0}
{0.715757396190117, -3.92281904608585, 0}
{0.681610828703545, -4.62975605885293, 0}
{0.633333340588836, -5.34696210014473, 0}
{0.666485013322127, -4.97512190441409, 0}
{0.659419024410761, -4.59434767298828, 0}
{0.751055537348089, -3.97307974069277, 0}
{0.698893740880433, -4.58631633160039, 0}
{0.624608796964037, -5.10269665996916, 0}
{0.760483709337118, -4.01360858637283, 0}
{0.873003372861052, -3.41160584200634, 0}
{0.758323515226208, -4.06166608104792, 0}
{0.718996052895055, -4.86952858411714, 0}
{0.631436725956169, -5.09971206022633, 0}
{0.736190040235115, -4.68364065332974, 0}
{0.675730236392049, -4.3313315936114, 0}
{0.638062326850696, -5.3046424439307, 0}
{0.760036896435677, -3.96300945848179, 0}
{0.678056419743335, -4.83582893657058, 0}
{0.659524712214181, -4.90115788003204, 0}
{0.754940755038294, -3.48792057769209, 0}
{0.916896457870059, -2.87212027625746, 0}
{0.843903731120236, -3.30264981833796, 0}
{0.7257395602234, -4.91536543930263, 0}
{0.637336203527806, -4.72096011335931, 0}
{0.762236955523565, -4.26264506223808, 0}
{0.682567897294853, -4.72007295118856, 0}
{0.795433589060034, -3.6350377858716, 0}
{0.657863483156835, -4.68900183590235, 0}
{0.604843481890008, -5.35776952526796, 0}
{0.702582843740504, -4.52918614807027, 0}
{0.76666660808649, -3.61494791700259, 0}
{0.747571412400209, -3.78792542555537, 0}
{0.753303663126739, -3.89027955005815, 0}
{0.682367062476521, -4.77826289419966, 0}
{0.687850606252412, -5.25963936687417, 0}
{0.676544681994775, -4.51342263838751, 0}
{0.632711030805735, -5.08668120064907, 0}
{0.724014825095716, -4.29506636723328, 0}
{0.66944094065526, -4.53594925466009, 0}
{0.683920094300061, -5.13575244233956, 0}
{0.805530043253911, -3.73560204618622, 0}
{0.911936476045815, -2.9433258880713, 0}
{0.774586183990986, -4.44473236962958, 0}
{0.665546140091828, -5.23266653085442, 0}
{0.585353942691201, -6.08621253181661, 0}
{0.722730119817345, -4.83112390902425, 0}
{0.638790441779166, -4.88139106369531, 0}
{0.723209779500963, -4.88866470429687, 0}
{0.849399567636124, -3.4396909671971, 0}
{0.704311648672722, -4.0953198244263, 0}
{0.58705514289254, -5.76061469757819, 0}
{0.693145150041094, -4.13572159493568, 0}
{0.884365741858082, -3.19938804515762, 0}
{0.802366344145139, -4.13173174063236, 0}
{0.736591324604307, -4.70701369760165, 0}
{0.651356343378709, -5.35234679971394, 0}
{0.726099830397299, -4.41332202446923, 0}
{0.699999875451202, -4.75035036368483, 0}
{0.691647512485255, -4.40937124711268, 0}
{0.628595624327156, -5.41524459692124, 0}
{0.641586920393982, -4.58292514338814, 0}
{0.78034246649943, -3.99155734946104, 0}
{0.758849688989424, -3.76336974848393, 0}
{0.727811587541971, -3.77367296480259, 0}
{0.7319970829097, -4.10283103651051, 0}
{0.703275890975916, -4.83880925066111, 0}
{0.723324001657589, -4.70856327282665, 0}
{0.687905574794709, -4.99208592355179, 0}
{0.713981948305438, -5.0389378424525, 0}
{0.778020153735172, -4.10667763223828, 0}
{0.645485073691262, -5.17155474836794, 0}
{0.667629158922527, -4.98112896096917, 0}
{0.891078056153243, -3.87689952334693, 0}
{0.792549992229734, -3.94669379204453, 0}
{0.702918483698728, -5.24127099463449, 0}
{0.762057801194671, -5.02621974128315, 0}
{0.649237464179388, -5.33530163437088, 0}
{0.679056976892632, -5.28455487825051, 0}
{0.664365785355347, -5.38220909660966, 0}
{0.744479618862064, -4.33099662510998, 0}
{0.832451404352588, -3.77090377723886, 0}
{0.61763640653564, -5.02370997510182, 0}
{0.671053513160876, -5.39557132667618, 0}
{0.598627463548098, -4.66113588012819, 0}
{0.850370922676431, -3.09278906032685, 0}
{0.743448038930274, -4.37135689909763, 0}
{0.761718552801205, -4.25974919187477, 0}
{0.675960786765105, -4.97262020735046, 0}
{0.635235142083875, -5.02739071760104, 0}
{0.688480318128107, -4.9792760280449, 0}
{0.67537228109187, -4.88709917413673, 0}
{0.591795965292693, -5.10492144123056, 0}
{0.755580043283111, -3.91347888667891, 0}
{0.762708126644986, -3.37489073808879, 0}
{0.772985951149802, -3.82078695523114, 0}
{0.722872707392687, -4.05887439193769, 0}
{0.707382324510261, -4.35903701613928, 0}
{0.726958312046796, -4.65755860204511, 0}
{0.768331825859309, -4.36682756506668, 0}
{0.781462570025103, -4.24737909972203, 0}
{0.685215810112716, -5.24514676211425, 0}
{0.715434452636186, -5.01668822928782, 0}
{0.727028218133161, -4.9012615451978, 0}
{0.73796586502655, -4.42570491446139, 0}
{0.740036215936857, -4.66958046764191, 0}
{0.713611579559654, -4.9219893446842, 0}
{0.754642651421167, -4.85524564762128, 0}
{0.820866773421632, -4.19607529075106, 0}
{0.671073494789877, -5.24934389440665, 0}
{0.714147418535489, -5.49132115054075, 0}
{0.697995518177891, -5.0560119637139, 0}
{0.679883118827423, -5.04007523132847, 0}
{0.782926958823313, -4.36289669678946, 0}
{0.66256370117718, -5.12038109184715, 0}
{0.707173545973861, -5.00670954989967, 0}
{0.668175607218983, -5.02227631620314, 0}
{0.825666372842397, -3.60804461299397, 0}
{0.701128216714212, -4.14706074861, 0}
{0.755329603045606, -4.35989202236689, 0}
{0.673146746505685, -4.63385022569746, 0}
{0.579832686043537, -5.86090391037786, 0}
{0.647258849353444, -4.8174019514892, 0}
{0.680937383497796, -4.78965169852287, 0}
{0.696372052253219, -4.51081133881466, 0}
{0.75590696870214, -3.8209950567839, 0}
{0.725649311238346, -3.7273934686802, 0}
{0.73547778051577, -3.75539242515069, 0}
{0.760386161594468, -3.70797414026624, 0}
{0.644693866511999, -4.74683569594628, 0}
{0.708764739728718, -4.63316565340723, 0}
{0.68024813578754, -5.06636775312954, 0}
{0.766666595271477, -4.19786865558441, 0}
{0.69999996741074, -4.94240954373824, 0}
{0.72394796904669, -4.70337438916919, 0}
{0.796070401367997, -4.33621447452885, 0}
{0.692713920930867, -4.83140234490118, 0}
{0.716177557448707, -4.70885448232518, 0}
{0.793525887570478, -4.47192839887924, 0}
{0.780063996987879, -4.40029306753421, 0}
{0.727947043146457, -4.74726216217864, 0}
{0.700000015023866, -5.38746780366121, 0}
{0.698421686962007, -5.1119510187281, 0}
{0.641802127188184, -5.30231609307718, 0}
{0.722621681078381, -4.93580119540742, 0}
{0.73939378390354, -4.55127854591671, 0}
{0.729779283699197, -4.89894527007785, 0}
{0.685383011155972, -4.79228620406217, 0}
{0.618598054622101, -5.30078556420081, 0}
{0.771623701913577, -4.05101590743005, 0}
{0.757899521345049, -4.2904679517299, 0}
{0.733333351207812, -4.34010504626805, 0}
{0.608494095817029, -5.39358476046608, 0}
{0.608446857048478, -5.22302122038265, 0}
{0.690770610212971, -4.7700919738449, 0}
{0.661474211693716, -5.16107766700017, 0}
{0.658513908794579, -4.21822185100198, 0}
{0.691500645183093, -4.21612319453349, 0}
{0.675067048593218, -4.27769567258254, 0}
{0.742892495934347, -3.79824735373628, 0}
{0.789968670232388, -3.60187563959798, 0}
{0.706123337615333, -4.41962530110729, 0}
{0.663024480307738, -4.98487881549195, 0}
{0.724889000644768, -4.81462361338981, 0}
{0.740528081571054, -4.40332106921587, 0}
{0.695556184648364, -4.76535711909836, 0}
{0.755590585169818, -4.37093595489608, 0}
{0.843023007466911, -3.68253141014954, 0}
{0.761183029287919, -4.37891815741186, 0}
{0.791769261674139, -4.57504336405838, 0}
{0.738731644135238, -4.52224321985683, 0}
{0.716963535804111, -4.86782595835689, 0}
{0.721773956192274, -4.78366887992858, 0}
{0.710772304361121, -5.06852562688794, 0}
{0.711511212606276, -5.02441428495901, 0}
{0.727691745210986, -5.16287664985615, 0}
{0.703895964282479, -5.04179166941285, 0}
{0.718076932207284, -4.85257582311368, 0}
{0.733333337587844, -4.91803919247091, 0}
{0.689212567477018, -4.81304127428566, 0}
{0.681706728154944, -5.38344257316075, 0}
{0.749675619909514, -4.07764527604847, 0}
{0.766666456609793, -4.57027452323429, 0}
{0.72623512101326, -4.56114703479211, 0}
{0.71401948184428, -5.05117386812306, 0}
{0.6859316503654, -4.90402382233895, 0}
{0.672727538829669, -5.00260956303214, 0}
{0.687065135572502, -4.5429373281174, 0}
{0.717545349182926, -4.36834213419503, 0}
{0.69128814939963, -4.82503844609388, 0}
{0.571021627273886, -5.6808055283727, 0}
{0.736394172466338, -3.74733512514072, 0}
{0.797891891364791, -3.51097980766986, 0}
{0.733333372224126, -4.11063173680986, 0}
{0.704236436470714, -4.86095930844313, 0}
{0.749428176193621, -4.31234786998402, 0}
{0.747484147207844, -4.23473132262099, 0}
{0.728591040135428, -4.40520230855758, 0}
{0.792231684013542, -3.50252486147292, 0}
{0.818191300295582, -4.0316773071799, 0}
{0.757297053451797, -4.47776720567025, 0}
{0.738088961362012, -4.47731943890071, 0}
{0.716388656232383, -4.84711018291488, 0}
{0.746936050432674, -4.71632033881754, 0}
{0.732826399163436, -5.04746954962184, 0}
{0.709391022515465, -4.80765027666942, 0}
{0.718456039595601, -4.97198711128426, 0}
{0.681450239693858, -4.99865413583583, 0}
{0.729446599758583, -5.0842624841644, 0}
{0.697577906747762, -4.8768947678552, 0}
{0.699247637758281, -5.00539670228475, 0}
{0.659899687321005, -5.02936993053033, 0}
{0.725073613036359, -5.26757757239684, 0}
{0.748830569564054, -4.53577279795979, 0}
{0.648506834348978, -4.84712604150316, 0}
{0.700150026010804, -4.59763516821204, 0}
{0.725479231747596, -4.76961325115911, 0}
{0.7137556779718, -4.67935337729505, 0}
{0.706874683296881, -4.72414704292085, 0}
{0.792158609507062, -4.14517863566437, 0}
{0.66164904741203, -5.1884403096059, 0}
{0.628970576216724, -5.47908126614167, 0}
{0.669942725831963, -4.89451911494633, 0}
{0.73482854084991, -4.28009334342444, 0}
{0.700627194699027, -4.27630605353356, 0}
{0.761827813328569, -4.0562328951832, 0}
{0.755194700579445, -4.1167336809247, 0}
{0.756163625948558, -4.04563232641241, 0}
{0.705389756552059, -4.11256864512259, 0}
{0.734183196025963, -3.9372994541439, 0}
{0.752568847207666, -3.5993863185593, 0}
{0.869121508497693, -3.7540758432582, 0}
{0.782845699806649, -4.1923914310447, 0}
{0.738642518886611, -4.71956881564874, 0}
{0.74022928286297, -4.84308690315769, 0}
{0.738646828389256, -4.89112820904547, 0}
{0.71672146939016, -4.88519711515213, 0}
{0.690055683734134, -4.96647100408671, 0}
{0.73128494298016, -5.10382429931459, 0}
{0.662452452866876, -5.0633497496062, 0}
{0.729631471733407, -4.9084025513069, 0}
{0.721211246315988, -4.87091709796065, 0}
{0.722000414827176, -5.05495026859846, 0}
{0.698911918142878, -4.98085903200014, 0}
{0.699134578953186, -5.05760437177607, 0}
{0.738030503423021, -4.69349808468504, 0}
{0.687901814566386, -4.94348118089762, 0}
{0.728181616209335, -4.78308400737757, 0}
{0.68733739476486, -4.79175312560646, 0}
{0.741210853812058, -4.46849843379082, 0}
{0.733302630925184, -4.66699211625993, 0}
{0.766666623904827, -4.44986567031979, 0}
{0.650785609913742, -5.52138059685708, 0}
{0.654606628200058, -5.26890672972325, 0}
{0.770299872284134, -3.98122272250906, 0}
{0.75415152791351, -4.64471335833615, 0}
{0.710896754967699, -5.06819657539363, 0}
{0.674423835000322, -4.7243588506488, 0}
{0.756684606089249, -3.9471320062421, 0}
{0.734231358664157, -4.16073238935674, 0}
{0.709208859790722, -4.25437852014214, 0}
{0.754002416007786, -3.96653875719182, 0}
{0.780451418493873, -4.09861515944219, 0}
{0.807530905347689, -3.45864505194278, 0}
{0.803362853348061, -4.05898470479463, 0}
{0.711840446957948, -4.8128739979357, 0}
{0.726860626483175, -4.85860968895466, 0}
{0.70722115865376, -4.7746259495498, 0}
{0.740451173738665, -4.95739822549261, 0}
{0.661183692406922, -5.34083206636404, 0}
{0.685622256607993, -5.10221699348945, 0}
{0.655950865530206, -5.10072024286304, 0}
{0.72188377532308, -4.97843065762007, 0}
{0.709756055104809, -4.64981627118351, 0}
{0.760940692413156, -4.68244848894625, 0}
{0.711358248997199, -4.72642264390812, 0}
{0.702579047364901, -5.03041450503953, 0}
{0.730236228010207, -4.9297433910112, 0}
{0.733333336253447, -4.7927601389045, 0}
{0.719168947544143, -4.80149086427791, 0}
{0.677949959121124, -4.81439698814856, 0}
{0.717500371361856, -4.61807999819518, 0}
{0.764671463785217, -4.77630941901836, 0}
{0.74502952083187, -4.59019797922091, 0}
{0.700627378958987, -5.16489226345344, 0}
{0.65952131559636, -5.18224304222543, 0}
{0.776633580808501, -3.91800029403744, 0}
{0.831666443926276, -4.08151066304407, 0}
{0.769738068499652, -4.85720378895692, 0}
{0.543781328746582, -6.08587632183371, 0}
{0.777854214721792, -3.97564562480807, 0}
{0.765873836444596, -4.29532541555204, 0}
{0.740504749890943, -4.36422966017691, 0}
{0.787354656999847, -4.16108121711871, 0}
{0.757188603399592, -4.47000745832238, 0}
{0.833333318472614, -3.63937165490976, 0}
{0.752562540270718, -4.88059302575657, 0}
{0.694709974487341, -5.01671449131045, 0}
{0.722660213737148, -4.75072598927277, 0}
{0.746899982938114, -4.76996486008076, 0}
{0.717341621618425, -5.01997227532565, 0}
{0.716996107720061, -5.01780948013554, 0}
{0.668738746785132, -5.21892200957732, 0}
{0.662007644415822, -5.38046710866943, 0}
{0.694342893502926, -5.03374441931577, 0}
{0.744810100326388, -4.67299329351043, 0}
{0.744815066532675, -4.59311490391206, 0}
{0.737916316325699, -4.70714140251545, 0}
{0.721536811642605, -4.88735326301694, 0}
{0.721489961145608, -4.86255291966622, 0}
{0.691333487985526, -4.68880990999461, 0}
{0.743636324856316, -4.66498201884721, 0}
{0.754682847564146, -4.69144736671677, 0}
{0.7296060172461, -4.60631295876424, 0}
{0.767271740595108, -4.40636047311355, 0}
{0.718113536800488, -4.91035339323964, 0}
{0.708672444979764, -5.02494682877297, 0}
{0.674718305022852, -5.18060092825172, 0}
{0.76259049615691, -4.2665325835396, 0}
{0.855478973255965, -3.71815021914843, 0}
{0.78751869936942, -4.57133837697597, 0}
{0.66752188583742, -5.5922325272919, 0}
{0.692932300713369, -4.47745942885604, 0}
{0.727488965579749, -4.51734982083854, 0}
{0.711164648905559, -4.62267717266178, 0}
{0.838139275648228, -3.86533329499002, 0}
{0.822611100478659, -4.05898724605264, 0}
{0.766168059903974, -4.23434665228957, 0}
{0.707933883407838, -5.17058861706425, 0}
{0.696780200179073, -5.7192295347638, 0}
{0.696915051027473, -5.46133164030974, 0}
{0.693625367336808, -4.98804673751004, 0}
{0.706098307506041, -4.99875467264616, 0}
{0.696643484911377, -5.23488379014607, 0}
{0.655656333364647, -5.3935052192098, 0}
{0.63584157671347, -5.6736576813037, 0}
{0.727503364542159, -4.64303532330981, 0}
{0.784597858606891, -4.42194173871405, 0}
{0.729680482088161, -4.34084590408133, 0}
{0.699005745346569, -4.97514258759696, 0}
{0.73333330220742, -4.80414659896569, 0}
{0.718864809998302, -4.78690559642942, 0}
{0.732041462824936, -4.5641789355207, 0}
{0.749060138809408, -4.57532325867349, 0}
{0.708177688849493, -4.44061584595641, 0}
{0.780880063355791, -4.5450187107114, 0}
{0.738043074770043, -4.68509189534369, 0}
{0.710778525559718, -5.23185506364995, 0}
{0.669214169969341, -5.24710048138915, 0}
{0.735578419288613, -4.71401988703783, 0}
{0.803432607525901, -4.2215226732484, 0}
{0.776972951115071, -4.24277204779422, 0}
{0.79179779006256, -4.53819195219213, 0}
{0.736832532324474, -4.924294598807, 0}
{0.692765910453348, -4.58461002670768, 0}
{0.758222960542485, -4.54197722417543, 0}
{0.710299726680017, -5.15977035815937, 0}
{0.837005931990291, -4.09537266637111, 0}
{0.748381581124364, -4.81248885074093, 0}
{0.76861984056656, -5.17658992500033, 0}
{0.738195143727094, -5.30472435832533, 0}
{0.717611352310177, -5.45734615815177, 0}
{0.733333137607292, -5.42371343732232, 0}
{0.666666555877532, -5.51265527246978, 0}
{0.711184929090402, -5.0974852074525, 0}
{0.66405041624699, -5.570661351819, 0}
{0.638278183084357, -5.4456441352012, 0}
{0.683497374384618, -5.54807111048373, 0}
{0.746529343843645, -4.59138296117092, 0}
{0.722078115268478, -4.61297106377876, 0}
{0.727952114678159, -4.70859034074723, 0}
{0.716895422363027, -5.10273887244451, 0}
{0.691647934709835, -4.85453847663304, 0}
{0.739933187639668, -4.76012704164114, 0}
{0.715834623346712, -4.55488562853513, 0}
{0.727113772811798, -4.68244042759173, 0}
{0.79999980849622, -4.45596522547474, 0}
{0.74995163898552, -4.67340350153136, 0}
{0.714204639190489, -4.69428524038244, 0}
{0.676694715095024, -5.46596460716916, 0}
{0.688849654165787, -5.25649890729023, 0}
{0.705886934609839, -4.65577882348075, 0}
{0.8023840955752, -4.20016691878476, 0}
{0.759757935354273, -4.39737670086577, 0}
{0.772254923725084, -4.63507997611479, 0}
{0.799999974801232, -4.48602653483005, 0}
{0.814368321288725, -4.19574191558152, 0}
{0.77017256033302, -5.0297977933997, 0}
{0.715247371251626, -5.43046815972959, 0}
{0.708744178191585, -5.72314524785837, 0}
{0.696168071595346, -5.5635914613889, 0}
{0.705465636066789, -5.54849358139889, 0}
{0.767893843036216, -5.17038605234099, 0}
{0.71735983517849, -5.43850752171085, 0}
{0.658319768836001, -6.05382646257141, 0}
{0.650139791231343, -5.62105553085664, 0}
{0.688842390592984, -5.12248961412658, 0}
{0.685081039415441, -5.22824619868631, 0}
{0.629056484707793, -5.80889703370137, 0}
{0.754118641884812, -4.88922433979706, 0}
{0.796653450424663, -4.2779090601213, 0}
{0.801809661676159, -4.41318019586474, 0}
{0.732899692057883, -4.60152415890178, 0}
{0.741871513852051, -4.84903141115068, 0}
{0.733333379557131, -5.03602864121851, 0}
{0.774396136158451, -4.7038806424664, 0}
{0.640031979134413, -5.09577733871532, 0}
{0.666666681568179, -4.89416022316553, 0}
{0.76267334150613, -4.60164524622239, 0}
{0.767969356823275, -4.53289120177884, 0}
{0.731027835606847, -5.00254302071339, 0}
{0.695024902750111, -5.23010453348273, 0}
{0.697787985334412, -5.17995386771258, 0}
{0.729547532701504, -4.65802962565106, 0}
{0.764548154396942, -4.60895051921668, 0}
{0.785006537787242, -4.58372480864262, 0}
{0.766986305929638, -4.82240153518163, 0}
{0.774617889916082, -4.90603714899332, 0}
{0.751249563435593, -4.82975280172136, 0}
{0.761522312835561, -5.31874868297888, 0}
{0.70479467534245, -5.92988956190643, 0}
{0.699559155329652, -5.70824961689859, 0}
{0.699999984335947, -5.88352291155988, 0}
{0.657553387012257, -5.93800983015373, 0}
{0.763811935002692, -5.03091220953055, 0}
{0.635091391893159, -6.15937795124475, 0}
{0.664522598739052, -5.68700640225628, 0}
{0.673050143486038, -5.54109522466924, 0}
{0.694098219795299, -5.18766914280964, 0}
{0.677156099057246, -5.22340274665432, 0}
{0.544825709051387, -5.96056841699104, 0}
{0.828468490941929, -4.09152040325642, 0}
{0.759422999015794, -4.62245132444903, 0}
{0.748036705864542, -4.45041407693643, 0}
{0.752574583401446, -4.65305569614353, 0}
{0.726822341189436, -4.94147480739851, 0}
{0.815302126674193, -4.15955245065694, 0}
{0.807867989258542, -4.25502245678448, 0}
{0.700000068917241, -5.16362233492388, 0}
{0.730998638208539, -5.16253508363905, 0}
{0.715661208342763, -4.95236695356462, 0}
{0.733686508162132, -4.948449015734, 0}
{0.652117658717898, -5.19712628392517, 0}
{0.734566507204627, -4.942834700754, 0}
{0.781863346097698, -4.76912995285043, 0}
{0.753901981138555, -4.75504618468438, 0}
{0.719592602368055, -5.2540256729319, 0}
{0.739087772391793, -4.92198239224999, 0}
{0.748735528127007, -4.86771080634033, 0}
{0.694720196414902, -5.45464641921032, 0}
{0.682799946098134, -5.14233175716046, 0}
{0.599766013952401, -6.18243354348194, 0}
{0.651125550106206, -6.15168610823648, 0}
{0.702398452975461, -6.04274653535022, 0}
{0.685592829164677, -5.56619950513514, 0}
{0.732754599991333, -5.1773804203086, 0}
{0.73304162748605, -5.3197814602517, 0}
{0.643478198524413, -5.50012779363096, 0}
{0.676722994897176, -5.49269548049225, 0}
{0.699765147180818, -5.25836287392228, 0}
{0.699543655105147, -5.05236628134433, 0}
{0.665925256485116, -5.22478523853357, 0}
{0.598659162451397, -6.12723731244102, 0}
{0.790043900105687, -4.13121475967118, 0}
{0.715133272926955, -4.40137564505552, 0}
{0.756314289086234, -4.50757652785884, 0}
{0.734279486248579, -4.43923381032256, 0}
{0.765908925018361, -4.24816659649888, 0}
{0.765747951499802, -4.16027277049451, 0}
{0.766666661048227, -4.08901257740511, 0}
{0.80079553204652, -4.28215661496389, 0}
{0.746439118599213, -4.93178467345263, 0}
{0.732495006057851, -4.88979432830753, 0}
{0.717743979263556, -4.93273342210714, 0}
{0.73333333662414, -4.96721959172951, 0}
{0.750806180279199, -4.53854682551917, 0}
{0.762030962315682, -4.87947023463851, 0}
{0.733056134826672, -4.65055725123748, 0}
{0.763036206092497, -4.84819954619126, 0}
{0.720939056448091, -4.96098975613797, 0}
{0.738376956967501, -4.80095102495428, 0}
{0.722191060587271, -4.9978893802944, 0}
{0.655754975850255, -5.1223525621208, 0}
{0.651686301181491, -6.20769613727747, 0}
{0.616356318776722, -5.8466976654296, 0}
{0.715088325267248, -5.72420538767622, 0}
{0.746732782794174, -5.01736035404009, 0}
{0.769379743088592, -4.92099775497412, 0}
{0.742511403554764, -5.09669207456692, 0}
{0.712578532007655, -5.30956257398763, 0}
{0.629889922137745, -5.7223977896096, 0}
{0.678868039271179, -5.21004371464229, 0}
{0.72239756233835, -4.99831546762575, 0}
{0.706424023374564, -4.76765002992684, 0}
{0.585819208758364, -5.47366303361638, 0}
{0.648297854825443, -4.89263398217431, 0}
{0.708402633672607, -4.32403068655644, 0}
{0.752485348082034, -4.15183256424901, 0}
{0.804176453526388, -3.71705274826145, 0}
{0.755605916215528, -4.06947302664905, 0}
{0.764287993845201, -4.13995092234093, 0}
{0.749937326778631, -4.27313772349122, 0}
{0.74810838055075, -4.3168672876213, 0}
{0.749974801934311, -4.38754338773195, 0}
{0.733320731946045, -4.49962102470869, 0}
{0.732222619485643, -4.6084145663033, 0}
{0.766386723067133, -4.37098940009942, 0}
{0.749519310589159, -4.54021149084657, 0}
{0.750064183243922, -4.61038631664492, 0}
{0.72406417955607, -4.59938558821213, 0}
{0.733035449913668, -4.60949357091702, 0}
{0.769979892189091, -4.6201266845968, 0}
{0.750255541510559, -4.69913131835471, 0}
{0.755615217973001, -4.64392185540651, 0}
{0.605159085458462, -5.23579409958291, 0}
{0.730128392805, -5.32264477471319, 0}
{0.651097039458759, -6.04066955430608, 0}
{0.633025279339872, -5.59701238383558, 0}
{0.65288901400178, -5.05096995252454, 0}
{0.798385993528865, -4.28956622782245, 0}
{0.680835713016807, -5.4168810540638, 0}
{0.706292171172694, -4.86633612378607, 0}
{0.671680951606479, -4.96692173155041, 0}
{0.642708517843348, -4.94749158216046, 0}
{0.766518021160992, -4.45425678153586, 0}
{0.70002529359769, -4.38497104141272, 0}
{0.709349817020541, -4.91900979266076, 0}
{0.641078501660178, -5.27648003176409, 0}
{0.625394111175366, -5.37173828274895, 0}
{0.757308475105626, -4.15100667476407, 0}
{0.88654501538589, -2.93596784737386, 0}
{0.788717803649641, -3.81811720558258, 0}
{0.732803655116846, -4.39449131833074, 0}
{0.766295342526855, -4.25962248311789, 0}
{0.730237226901842, -4.26792813808855, 0}
{0.732385503888386, -4.59643500329923, 0}
{0.729122145559369, -4.467442944713, 0}
{0.747570854414552, -4.55387763119312, 0}
{0.733333196861078, -4.48913263494092, 0}
{0.71730181207729, -4.46121754337829, 0}
{0.767559283230934, -4.22555913668613, 0}
{0.766666656886413, -4.44283250275028, 0}
{0.735701639869283, -4.69586250954253, 0}
{0.786528952130112, -4.39726551397021, 0}
{0.737168519283869, -4.73815610799725, 0}
{0.74460331757826, -4.69516706488859, 0}
{0.702589207859962, -4.91059676582136, 0}
{0.698185797429581, -5.55078360793911, 0}
{0.691419891312246, -5.30051021895454, 0}
{0.600244199774303, -5.99387391888011, 0}
{0.692682039464651, -4.80019601057123, 0}
{0.778874716691741, -4.11146964392733, 0}
{0.685374125969149, -5.07096546959291, 0}
{0.753395073760276, -4.30405132553306, 0}
{0.746436342741751, -4.4305851099947, 0}
{0.633504116866895, -5.31173595437878, 0}
{0.689529556320977, -4.43117103890969, 0}
{0.786681743584058, -4.05299630672207, 0}
{0.776724803150792, -3.99523318502544, 0}
{0.668042722243706, -5.16584935532173, 0}
{0.580364836274543, -5.81490527684236, 0}
{0.636574181618146, -4.72411089211331, 0}
{0.871901805018053, -2.78365376950223, 0}
{0.777320482645754, -3.6370531083656, 0}
{0.787607481305621, -4.40249940702976, 0}
{0.777459994390183, -4.14549468082937, 0}
{0.700000016948523, -4.96645250778144, 0}
{0.76666663734381, -4.44216674643931, 0}
{0.762943269992107, -4.57703732545194, 0}
{0.721257708327762, -4.58157548511067, 0}
{0.717739449784859, -5.06184386140735, 0}
{0.659027342327979, -4.93460586823879, 0}
{0.752445259349734, -4.33906579236473, 0}
{0.74865059070793, -4.49588244557541, 0}
{0.764557165389803, -4.6534724446887, 0}
{0.740947432146757, -4.81703832842133, 0}
{0.751388270202604, -4.73137477265353, 0}
{0.754388566735999, -4.73835053469837, 0}
{0.713816543741463, -4.8615625214344, 0}
{0.699999856601808, -5.1593333977332, 0}
{0.651326834992583, -5.16970091556486, 0}
{0.664833092594354, -5.04518163708952, 0}
{0.649520279520013, -5.26352372511977, 0}
{0.701806113405813, -4.21463048235761, 0}
{0.68112126323854, -4.67756918009027, 0}
{0.705208749259314, -4.13833490715297, 0}
{0.760774111378221, -3.81114699883436, 0}
{0.653280854989277, -5.4262892634709, 0}
{0.718595263250402, -4.63812497430721, 0}
{0.747422637103252, -3.64646050247716, 0}
{0.855112933157371, -3.46487831702057, 0}
{0.723007602635773, -4.8675212633679, 0}
{0.656179681827929, -5.5468476876092, 0}
{0.657248187656793, -5.7124887282447, 0}
{0.807753694522833, -3.56385201859725, 0}
{0.831985390418494, -3.4821964857664, 0}
{0.839150590497273, -3.3059055647107, 0}
{0.863935969824328, -3.70744979121479, 0}
{0.699732948897906, -5.19001437019635, 0}
{0.765832484248844, -4.67401889666326, 0}
{0.79722366244102, -4.52405755181511, 0}
{0.689769291551269, -4.73926750500743, 0}
{0.639102129716135, -5.13219363801074, 0}
{0.698621703091049, -5.13201522914757, 0}
{0.766421672885119, -4.56315057352569, 0}
{0.751518626225182, -4.68387996964733, 0}
{0.760131725482724, -4.8447235437678, 0}
{0.72026329098055, -4.9635292388327, 0}
{0.736635403529966, -4.853146678352, 0}
{0.734937952477871, -4.7474151107573, 0}
{0.633628204199255, -5.27677200368136, 0}
{0.665603957369073, -5.25883645241926, 0}
{0.700358483738555, -4.89502100121141, 0}
{0.747560023322769, -4.60492712817936, 0}
{0.64593049078576, -5.27180461407584, 0}
{0.671866132273198, -4.72167325882979, 0}
{0.730961290270761, -4.04418367772481, 0}
{0.78232312746038, -3.60972035920884, 0}
{0.661560907713533, -4.47858873452736, 0}
{0.712701113388988, -4.73858096161665, 0}
{0.783795929548597, -3.85940682453556, 0}
{0.845358672199134, -3.37335276498719, 0}
{0.839476145286262, -3.52962079867311, 0}
{0.602855555924333, -5.48544207591643, 0}
{0.48656341848427, -6.56873954996634, 0}
{0.712573333662067, -4.75274563974367, 0}
{0.921144564639209, -2.54603161455061, 0}
{0.823853807491957, -3.24376508211379, 0}
{0.835236008708966, -3.66348098670336, 0}
{0.824949224159702, -3.53624469592905, 0}
{0.743360801596036, -4.73655438996748, 0}
{0.716000114876783, -5.04668288415163, 0}
{0.736434689744265, -4.79279681299493, 0}
{0.713697272176428, -4.95624076705981, 0}
{0.733333330611831, -5.01980419093578, 0}
{0.744355143049017, -4.8769542840451, 0}
{0.706215806462689, -4.86538475509171, 0}
{0.71736373246623, -4.87892718562331, 0}
{0.752332298848755, -4.82199700087541, 0}
{0.725731256892916, -4.85112060273612, 0}
{0.722346952317642, -4.90288697053973, 0}
{0.74109503818463, -4.8352312700971, 0}
{0.695208791532278, -5.19507834136025, 0}
{0.610232716936987, -5.71570136784176, 0}
{0.61901208593363, -5.42168852772187, 0}
{0.700398449853047, -4.51297764728373, 0}
{0.699337757022873, -4.36623507722312, 0}
{0.633018175618017, -5.34003609065136, 0}
{0.707062496604533, -4.43250788944473, 0}
{0.799999991984038, -3.54232413478629, 0}
{0.726854748801913, -4.19811443365226, 0}
{0.699961162175345, -4.64440615485864, 0}
{0.811368833484322, -3.46547841519337, 0}
{0.804879414527255, -3.66000687133449, 0}
{0.758610372781718, -4.25865685259065, 0}
{0.557763526751263, -5.84190138254796, 0}
{0.586233524914524, -5.49814537554477, 0}
{0.72632443198569, -3.67948357045148, 0}
{0.901774403016115, -2.63350180420357, 0}
{0.865688563135177, -3.15899167858664, 0}
{0.896500987591622, -3.56468456103497, 0}
{0.739256984091469, -4.40193238485801, 0}
{0.728919963677272, -4.99251448208532, 0}
{0.672578687416448, -4.99053806477045, 0}
{0.730285332731095, -4.99391202856239, 0}
{0.744200902328463, -4.80849143306321, 0}
{0.705250204259827, -4.86016392122271, 0}
{0.702051206193724, -4.86782651448758, 0}
{0.695789265813003, -5.02463726182931, 0}
{0.73333340200917, -4.87295954077778, 0}
{0.705089562723668, -4.69687587975962, 0}
{0.746335137404369, -4.91043558386794, 0}
{0.729603275337684, -4.88778302066971, 0}
{0.734963469936757, -4.9733581634569, 0}}

